bim_lau_first_slot = {
	slot = 1
	generic = no
	ai = yes
	potential = {
		tag = Y51
	}
	has_country_shield = yes	
	
	Y51_secure_food_production = {
		icon = mission_rice_field
		position = 1
		provinces_to_highlight = {
			OR = {
				province_id = 4582
				province_id = 4594
			}
		}

		trigger = {
			owns_core_province = 4582
			owns_core_province = 4594
			4582 = {
				has_production_building_trigger = yes
				has_manufactory_trigger = yes
				base_production = 8
			}
			4594 = {
				has_production_building_trigger = yes
				has_manufactory_trigger = yes
				base_production = 8
			}
		}

		effect = {
			4582 = {
				add_permanent_province_modifier = {
					name = "adv_grain_production"
					duration = -1
				}
			}
			4594 = {
				add_permanent_province_modifier = {
					name = "adv_grain_production"
					duration = -1
				}
			}
			add_country_modifier = {
				name = "Y51_secured_food"
				duration = 3650
			}
		}
	}
	
	Y51_restore_bim_lau_living_part = {
		icon = mission_asian_city
		required_missions = { Y51_secure_food_production Y51_jungle_mining }
		position = 3
		provinces_to_highlight = {
			province_id = 4565
		}

		trigger = {
			owns_core_province = 4565
			4565 = {
				has_tax_building_trigger = yes
				development = 30
			}
		}

		effect = {
			add_adm_power = 100
			add_dip_power = 100
			add_mil_power = 100
			add_country_modifier = {
				name = "growing_economy"
				duration = 9125 #25 years
			}
		}
	}
	
	Y51_prospecting_damestear = {
		icon = mission_grand_trunk_road_mug
		required_missions = { Y51_restore_bim_lau_living_part }
		position = 4
		provinces_to_highlight = {
			province_id = 4588
		}
		
		trigger = {
			owns_core_province = 4588
			4588 = {
				has_courthouse_building_trigger = yes
				base_tax = 8
			}
			treasury = 300
		}
		
		effect = {
			add_treasury = -300
			4588 = {
				change_trade_goods = damestear
			}
		}
	}
	
	Y51_finish_repairs = {
		icon = mission_a_great_mandala
		required_missions = { Y51_prospecting_damestear }
		position = 5
		provinces_to_highlight = {
			province_id = 4565
		}
		
		trigger = {
			damestear = 1
			4565 = {
				has_fort_building_trigger = yes
				has_production_building_trigger = yes
				has_province_modifier = Y51_necropolis_1
			}
		}
		
		effect = {
			custom_tooltip = bim_lau_spirit_update_tt
			4565 = {
				add_base_tax = 2
				add_base_production = 2
				add_base_manpower = 2
			}
			hidden_effect = {
				4565 = {
					change_variable = {
						which = BimLauTombOpulence
						value = 10
					}
				}
				bim_lau_spirit_power = yes
			}
		}
	}
	
	Y51_restore_ket_btei = {
		icon = mission_coromandel_trade
		required_missions = { Y51_finish_repairs }
		position = 6
		provinces_to_highlight = {
			province_id = 4595
		}
		
		trigger = {
			4595 = {
				owned_by = ROOT
				has_fort_building_trigger = yes
				has_manpower_building_trigger = yes
				base_manpower = 6
			}
		}
		
		effect = {
			custom_tooltip = bim_lau_spirit_update_tt
			if = {
				limit = {
					4595 = { NOT = { has_province_modifier = Y51_spirit_fort } }
				}
				4595 = {
					add_permanent_province_modifier = {
						name = Y51_spirit_fort
						duration = -1
					}
					add_base_manpower = 3
				}
			}
			hidden_effect = {
				4565 = {
					change_variable = {
						which = BimLauTombPower
						value = 10
					}
				}
				bim_lau_spirit_power = yes
			}
		}
	}
	
	Y51_entombment_tradition = {
		icon = mission_found_udaipur
		required_missions = { Y51_restore_ket_btei }
		position = 7
		
		trigger = {
			has_estate = estate_mages
			estate_influence = {
				estate = estate_mages
				influence = 60
			}
			num_of_owned_provinces_with = {
				value = 2
				has_province_modifier = Y51_spirit_fort
			}
			4565 = {
				OR = {
					has_province_modifier = Y51_tomb_power_low
					has_province_modifier = Y51_tomb_power_medium
					has_province_modifier = Y51_tomb_power_high
				}
			}
		}
		
		effect = {
			add_country_modifier = {
				name = "Y51_entombment_traditions"
				duration = -1
			}
		}
	}
	
	Y51_strengthen_wards = {
		icon = mission_chakravarti
		required_missions = { Y51_entombment_tradition }
		position = 8
		
		trigger = {
			has_estate = estate_mages
			estate_influence = {
				estate = estate_mages
				influence = 60
			}
			estate_loyalty = {
				estate = estate_mages
				loyalty = 65
			}
			num_of_owned_provinces_with = {
				value = 4
				has_province_modifier = Y51_spirit_fort
			}
			OR = {
				dyes = 1
				any_subject_country = { dyes = 1 }
				any_ally = { dyes = 1 }
			}
			4565 = {
				OR = {
					has_province_modifier = Y51_tomb_power_medium
					has_province_modifier = Y51_tomb_power_high
				}
			}
		}
		
		effect = {
			custom_tooltip = bim_lau_spirit_update_tt
			4565 = {
				remove_province_modifier = Y51_necropolis_1
				add_permanent_province_modifier = {
					name = Y51_necropolis_2
					duration = -1
				}
			}
			hidden_effect = {
				4565 = {
					change_variable = {
						which = BimLauTombPower
						value = 5
					}
					change_variable = {
						which = BimLauTombOpulence
						value = 10
					}
				}
				bim_lau_spirit_power = yes
			}
		}
	}
	
	Y51_precursor_magic = {
		icon = mission_geainne
		required_missions = { Y51_strengthen_wards }
		position = 9
		
		trigger = {
			OR = {
				precursor_relics = 1
				any_subject_country = { precursor_relics = 1 }
				trading_bonus = {
					trade_goods = precursor_relics
					value = yes
				}
			}
			4565 = {
				OR = {
					has_province_modifier = Y51_tomb_power_medium
					has_province_modifier = Y51_tomb_power_high
				}
			}
		}
		
		effect = {
			4565 = {
				add_permanent_province_modifier = {
					name = Y51_precursor_necropolis
					duration = -1
				}
			}
		}
	}
	
	Y51_surpass_ancestors = {
		icon = mission_sun_temple
		required_missions = { Y51_precursor_magic }
		position = 10
		
		trigger = {
			num_of_owned_provinces_with = {
				value = 5
				has_province_modifier = Y51_spirit_fort
			}
			4565 = {
				has_province_modifier = Y51_tomb_power_high
				development = 50
			}
		}
		
		effect = {
			custom_tooltip = bim_lau_spirit_update_tt
			4565 = {
				remove_province_modifier = Y51_necropolis_2
				add_permanent_province_modifier = {
					name = Y51_necropolis_3
					duration = -1
				}
				add_base_tax = 3
				add_base_production = 3
				add_base_manpower = 3
			}
			if = {
				limit = {
					any_owned_province = {
						has_province_modifier = Y51_spirit_fort
					}
				}
				every_owned_province = {
					limit = {
						has_province_modifier = Y51_spirit_fort
					}
					add_base_tax = 3
					add_base_production = 3
					add_base_manpower = 3
				}
			}
			hidden_effect = {
				4565 = {
					change_variable = {
						which = BimLauTombPower
						value = 5
					}
					change_variable = {
						which = BimLauTombOpulence
						value = 10
					}
				}
				bim_lau_spirit_power = yes
			}
		}
	}
}
	
bim_lau_second_slot_1 = {
	slot = 2
	generic = no
	ai = yes
	potential = {
		tag = Y51
	}
	has_country_shield = yes
	
	Y51_expand_logging_industry = {
		icon = mission_clear_the_delta
		position = 1
		provinces_to_highlight = {
			province_id = 4564
		}

		trigger = {
			owns_core_province = 4564
			4564 = {
				has_production_building_trigger = yes
				development = 10
			}
			tropical_wood = 3
		}

		effect = {
			4564 = {
				add_base_production = 2
			}
			add_country_modifier = {
				name = "Y51_logging_industry"
				duration = 7300
			}
		}
	}
	
	Y51_jungle_mining = {
		icon = mission_potosi_silver
		required_missions = { Y51_expand_logging_industry }
		position = 2
		provinces_to_highlight = {
			province_id = 4588
		}
		
		trigger = {
			owns_core_province = 4588
			4588 = {
				has_production_building_trigger = yes
			}
			manpower = 10
		}
		
		effect = {
			add_manpower = -10
			4588 = {
				add_base_tax = 2
				add_base_production = 2
			}
			4565 = {
				add_base_tax = 1
			}
		}
	}
}

bim_lau_second_slot_3 = {
	slot = 2
	generic = no
	ai = yes
	potential = {
		tag = Y51
	}
	has_country_shield = yes
	Y51_southern_metropolis = {
		icon = mission_city_prosperity
		required_missions = { Y51_southern_reclamation }
		position = 7
		provinces_to_highlight = {
			province_id = 4560
		}
		
		trigger = {
			owns_core_province = 4560
			4560 = {
				culture = ranilau
				has_production_building_trigger = yes
				has_trade_building_trigger = yes
				development = 25
			}
		}
		
		effect = {
			4560 = {
				add_base_tax = 2
				add_base_production = 2
				add_base_manpower = 2
				if = {
					limit = { 	province_has_center_of_trade_of_level = 3 }
					add_base_production = 2 
				}
				else = {
					add_center_of_trade_level = 1 
				}
			}
		}
	}
	
	Y51_restore_bieng_phang = {
		icon = mission_seize_the_bengal_coast
		required_missions = { Y51_southern_metropolis }
		position = 8
		provinces_to_highlight = {
			province_id = 4560
		}
		
		trigger = {
			4560 = {
				owned_by = ROOT
				has_fort_building_trigger = yes
				has_manpower_building_trigger = yes
				base_manpower = 6
			}
		}
		
		effect = {
			custom_tooltip = bim_lau_spirit_update_tt
			if = {
				limit = {
					4560 = { NOT = { has_province_modifier = Y51_spirit_fort } }
				}
				4560 = {
					add_permanent_province_modifier = {
						name = Y51_spirit_fort
						duration = -1
					}
					add_base_manpower = 3
				}
			}
			hidden_effect = {
				4565 = {
					change_variable = {
						which = BimLauTombPower
						value = 10
					}
				}
				bim_lau_spirit_power = yes
			}
		}
	}
}

bim_lau_third_slot_1 = {
	slot = 3
	generic = no
	ai = yes
	potential = {
		tag = Y51
	}
	has_country_shield = yes
	
	Y51_spirits_return = {
		icon = mission_magisterium_breakthrought
		position = 1
		
		trigger = {
			stability = 1
			owns_core_province = 4565
		}
		
		effect = {
			custom_tooltip = bim_lau_spirit_update_tt
			country_event = {
				id = bim_lau_flavour.1
			}
			hidden_effect = {
				4565 = {
					change_variable = {
						which = BimLauTombPower
						value = 5
					}
				}
				bim_lau_spirit_power = yes
			}
		}
	}
	
	Y51_the_succession = {
		icon = mission_empire
		required_missions = { Y51_spirits_return }
		position = 2
		
		trigger = {
			custom_trigger_tooltip = {
				tooltip = bim_lau_succession_flags_tt
				OR = {
					has_country_flag = bim_lau_eldest_son_succession
					has_country_flag = harimari_warlord_succession
					has_country_flag = bim_lau_estates_succession
				}
			}
		}
		
		effect = {
			country_event = {
				id = bim_lau_flavour.3
			}
		}
	}
}

bim_lau_third_slot_2 = {
	slot = 3
	generic = no
	ai = yes
	potential = {
		tag = Y51
		has_country_flag = bim_lau_becomes_human
	}
	has_country_shield = yes
	
	Y51_ancestor_veneration = {
		icon = mission_sufi_shrines
		required_missions = { Y51_the_succession }
		position = 3
		
		trigger = {
			primary_culture = ranilau
			ruler_culture = ranilau
		}
		
		effect = {
			add_country_modifier = {
				name = Y51_spirit_worship
				duration = -1
			}
		}
	}
	
	Y51_ancient_secrets_mission = {
		icon = mission_mosque
		required_missions = { Y51_ancestor_veneration }
		position = 4
		
		trigger = {
			4565 = {
				NOT = {
					has_province_modifier = Y51_necropolis_derelict
				}
			}
		}
		
		effect = {
			add_country_modifier = {
				name = Y51_ancient_secrets
				duration = 3650
			}
		}
	}
	
	Y51_honor_sri_ang_rang = {
		icon = mission_writing_book
		required_missions = { Y51_ancient_secrets_mission }
		position = 5
		
		trigger = {
			prestige = 75
			OR = {
				adm = 6
			    dip = 6
				mil = 6
			}
		}
		
		effect = {
			custom_tooltip = bim_lau_spirit_update_tt
			add_country_modifier = {
				name = "Y51_ang_rang_heirs"
				duration = -1
			}
			hidden_effect = {
				4565 = {
					change_variable = {
						which = BimLauTombPower
						value = 10
					}
					change_variable = {
						which = BimLauTombOpulence
						value = 10
					}
				}
				bim_lau_spirit_power = yes
			}
		}
	}
}

bim_lau_third_slot_3 = {
	slot = 3
	generic = no
	ai = yes
	potential = {
		tag = Y51
		has_country_flag = bim_lau_stays_harimari
	}
	has_country_shield = yes

	Y51_tolerate_ancient_rites = {
		icon = mission_friends_or_enemies
		required_missions = { Y51_the_succession }
		position = 3
		
		trigger = {
			estate_loyalty = {
				estate = estate_church
				loyalty = 60
			}
			has_estate_privilege = estate_church_guaranteed_autonomy
		}
		
		effect = {
			add_prestige = 15
			add_country_modifier = {
				name = "Y51_religious_tolerance"
				duration = -1
			}
		}
	}
	
	Y51_new_arts_mission = {
		icon = mission_scholar_officials
		required_missions = { Y51_tolerate_ancient_rites }
		position = 4
		
		trigger = {
			4565 = {
				NOT = {
					has_province_modifier = Y51_necropolis_derelict
				}
			}
		}
		
		effect = {
			add_country_modifier = {
				name = Y51_new_arts
				duration = 3650
			}
		}
	}
}

bim_lau_third_slot_4 = {
	slot = 3
	generic = no
	ai = yes
	potential = {
		tag = Y51
	}
	has_country_shield = yes
	
	Y51_southern_reclamation = {
		icon = mission_mnd_khm_resurgence
		position = 6
		provinces_to_highlight = {
			OR = {
				area = lower_telebei_area
				area = reanthung_area
			}
			NOT = {
				country_or_non_sovereign_subject_holds = ROOT
			}
		}
		
		trigger = {
			reanthung_area = {
				type = all
				country_or_non_sovereign_subject_holds = ROOT
			}
			lower_telebei_area = {
				type = all
				country_or_non_sovereign_subject_holds = ROOT
			}
		}
		
		effect = {
			sramolbei_area = {
				limit = {
					NOT = { is_core = ROOT }
					NOT = { is_permanent_claim = ROOT }
				}
				add_permanent_claim = ROOT
			}
			cmor_krueng_area = {
				limit = {
					NOT = { is_core = ROOT }
					NOT = { is_permanent_claim = ROOT }
				}
				add_permanent_claim = ROOT
			}
		}
	}
}

bim_lau_third_slot_5 = {
	slot = 3
	generic = no
	ai = yes
	potential = {
		tag = Y51
		has_country_flag = bim_lau_normal_missions
	}
	has_country_shield = yes
	
	Y51_pearl_of_bomdan = {
		icon = mission_subjugate_saurashtra
		required_missions = { Y51_southern_reclamation }
		position = 7
		provinces_to_highlight = {
			OR = {
				area = sramolbei_area
				area = cmor_krueng_area
			}
			NOT = {
				country_or_non_sovereign_subject_holds = ROOT
			}
		}
		
		trigger = {
			sramolbei_area = {
				type = all
				country_or_non_sovereign_subject_holds = ROOT
			}
			cmor_krueng_area = {
				type = all
				country_or_non_sovereign_subject_holds = ROOT
			}
		}
		
		effect = {
			khindi_area = {
				limit = {
					NOT = { is_core = ROOT }
					NOT = { is_permanent_claim = ROOT }
				}
				add_permanent_claim = ROOT
			}
			khangleu_thuing_area = {
				limit = {
					NOT = { is_core = ROOT }
					NOT = { is_permanent_claim = ROOT }
				}
				add_permanent_claim = ROOT
			}
			if = {
				limit = {
					exists = Y53
				}
				add_casus_belli = {
					target = Y53
					type = cb_vassalize_mission
				}
			}
		}
	}
	
	Y51_subjugate_south = {
		icon = mission_cannons_firing
		required_missions = { Y51_pearl_of_bomdan }
		position = 8
		provinces_to_highlight = {
			area = khindi_area
			NOT = {
				country_or_non_sovereign_subject_holds = ROOT
			}
		}
		
		trigger = {
			khindi_area = {
				type = all
				country_or_non_sovereign_subject_holds = ROOT
			}
		}
		
		effect = {
			phaemtuek_area = {
				limit = {
					NOT = { is_core = ROOT }
					NOT = { is_permanent_claim = ROOT }
				}
				add_permanent_claim = ROOT
			}
			if = {
				limit = {
					exists = Y57
				}
				add_casus_belli = {
					target = Y57
					type = cb_vassalize_mission
				}
			}
		}
	}
	
	Y51_control_coast = {
		icon = mission_konkani_pirates
		required_missions = { Y51_subjugate_south Y51_restore_bieng_phang }
		position = 9
		provinces_to_highlight = {
			province_id = 4570
		}
		
		trigger = {
			4570 = {
				owned_by = ROOT
				has_fort_building_trigger = yes
				has_manpower_building_trigger = yes
				base_manpower = 6
			}
		}
		
		effect = {
			custom_tooltip = bim_lau_spirit_update_tt
			if = {
				limit = {
					4570 = { NOT = { has_province_modifier = Y51_spirit_fort } }
				}
				4570 = {
					add_permanent_province_modifier = {
						name = Y51_spirit_fort
						duration = -1
					}
					add_base_manpower = 3
				}
			}
			hidden_effect = {
				4565 = {
					change_variable = {
						which = BimLauTombPower
						value = 10
					}
				}
				bim_lau_spirit_power = yes
			}
		}
	}
}

bim_lau_third_slot_6 = {
	slot = 3
	generic = no
	ai = yes
	potential = {
		tag = Y51
		has_country_flag = harimari_supremacy_succession
	}
	has_country_shield = yes
	
	Y51_first_step_to_rahen = {
		icon = mission_across_the_vindhyas
		required_missions = { Y51_southern_reclamation }
		position = 7
		provinces_to_highlight = {
			OR = {
				area = sramolbei_area
				area = cmor_krueng_area
			}
			NOT = {
				country_or_non_sovereign_subject_holds = ROOT
			}
		}
		
		trigger = {
			sramolbei_area = {
				type = all
				country_or_non_sovereign_subject_holds = ROOT
			}
			cmor_krueng_area = {
				type = all
				country_or_non_sovereign_subject_holds = ROOT
			}
		}
		
		effect = {
			li_btei_area = {
				limit = {
					NOT = { is_core = ROOT }
					NOT = { is_permanent_claim = ROOT }
				}
				add_permanent_claim = ROOT
			}
			khiraspid_area = {
				limit = {
					NOT = { is_core = ROOT }
					NOT = { is_permanent_claim = ROOT }
				}
				add_permanent_claim = ROOT
			}
		}
	}
	
	Y51_new_capital = {
		icon = mission_gwalior_and_rathambore
		required_missions = { Y51_first_step_to_rahen }
		position = 8
		provinces_to_highlight = {
			OR = {
				area = khiraspid_area
				area = li_btei_area
			}
			NOT = {
				country_or_non_sovereign_subject_holds = ROOT
			}
		}
		
		trigger = {
			khiraspid_area = {
				type = all
				country_or_non_sovereign_subject_holds = ROOT
			}
			li_btei_area = {
				type = all
				country_or_non_sovereign_subject_holds = ROOT
			}
			owns_core_province = 4409
			4409 = {
				is_state = yes
			}
		}
		
		effect = {
			country_event = {
				id = bim_lau_flavour.20
			}
			kharunyana_estuary_area = {
				limit = {
					NOT = { is_core = ROOT }
					NOT = { is_permanent_claim = ROOT }
				}
				add_permanent_claim = ROOT
			}
			keyattordha_area = {
				limit = {
					NOT = { is_core = ROOT }
					NOT = { is_permanent_claim = ROOT }
				}
				add_permanent_claim = ROOT
			}
		}
	}
	
	Y51_rahen_coast = {
		icon = mission_clear_the_delta
		required_missions = { Y51_new_capital }
		position = 9
		provinces_to_highlight = {
			area = kharunyana_estuary_area
			NOT = {
				country_or_non_sovereign_subject_holds = ROOT
			}
		}
		
		trigger = {
			kharunyana_estuary_area = {
				type = all
				country_or_non_sovereign_subject_holds = ROOT
			}
		}
		
		effect = {
			dhenbasana_estuary_area = {
				limit = {
					NOT = { is_core = ROOT }
					NOT = { is_permanent_claim = ROOT }
				}
				add_permanent_claim = ROOT
			}
			tujgal_area = {
				limit = {
					NOT = { is_core = ROOT }
					NOT = { is_permanent_claim = ROOT }
				}
				add_permanent_claim = ROOT
			}
			lower_dhenbasana_area = {
				limit = {
					NOT = { is_core = ROOT }
					NOT = { is_permanent_claim = ROOT }
				}
				add_permanent_claim = ROOT
			}
			rhamirta_area = {
				limit = {
					NOT = { is_core = ROOT }
					NOT = { is_permanent_claim = ROOT }
				}
				add_permanent_claim = ROOT
			}
		}
	}
	
	Y51_along_dhenbasana = {
		icon = mission_control_the_desh
		required_missions = { Y51_rahen_coast }
		position = 10
		provinces_to_highlight = {
			OR = {
				area = dhenbasana_estuary_area
				area = tujgal_area
				area = lower_dhenbasana_area
				area = rhamirta_area
			}
			NOT = {
				country_or_non_sovereign_subject_holds = ROOT
			}
		}
		
		trigger = {
			dhenbasana_estuary_area = {
				type = all
				country_or_non_sovereign_subject_holds = ROOT
			}
			tujgal_area = {
				type = all
				country_or_non_sovereign_subject_holds = ROOT
			}
			lower_dhenbasana_area = {
				type = all
				country_or_non_sovereign_subject_holds = ROOT
			}
			rhamirta_area = {
				type = all
				country_or_non_sovereign_subject_holds = ROOT
			}
		}
		
		effect = {
			inner_rahen_area = {
				limit = {
					NOT = { is_core = ROOT }
					NOT = { is_permanent_claim = ROOT }
				}
				add_permanent_claim = ROOT
			}
			satarsaya_area = {
				limit = {
					NOT = { is_core = ROOT }
					NOT = { is_permanent_claim = ROOT }
				}
				add_permanent_claim = ROOT
			}
			upper_dhenbasana_area = {
				limit = {
					NOT = { is_core = ROOT }
					NOT = { is_permanent_claim = ROOT }
				}
				add_permanent_claim = ROOT
			}
			shenral_area = {
				limit = {
					NOT = { is_core = ROOT }
					NOT = { is_permanent_claim = ROOT }
				}
				add_permanent_claim = ROOT
			}
			south_marutha_area = {
				limit = {
					NOT = { is_core = ROOT }
					NOT = { is_permanent_claim = ROOT }
				}
				add_permanent_claim = ROOT
			}
		}
	}
	
	Y51_proclaim_new_dynasty = {
		icon = mission_conquer_bengal_dlh
		required_missions = { Y51_along_dhenbasana Y51_northern_raj }
		position = 11
		provinces_to_highlight = {
			OR = {
				area = inner_rahen_area
				area = satarsaya_area
				area = upper_dhenbasana_area
				area = shenral_area
				province_id = 4510
			}
			NOT = {
				country_or_non_sovereign_subject_holds = ROOT
			}
		}
		
		trigger = {
			inner_rahen_area = {
				type = all
				country_or_non_sovereign_subject_holds = ROOT
			}
			satarsaya_area = {
				type = all
				country_or_non_sovereign_subject_holds = ROOT
			}
			upper_dhenbasana_area = {
				type = all
				country_or_non_sovereign_subject_holds = ROOT
			}
			shenral_area = {
				type = all
				country_or_non_sovereign_subject_holds = ROOT
			}
			owns_core_province = 4510
			owns_core_province = 4411
		}
		
		effect = {
			custom_tooltip = bim_lau_spirit_update_tt
			add_country_modifier = {
				name = Y51_harimari_warlords
				duration = -1
			}
			if = {
				limit = {
					4411 = { NOT = { has_province_modifier = Y51_spirit_fort } }
				}
				4411 = {
					add_permanent_province_modifier = {
						name = Y51_spirit_fort
						duration = -1
					}
					add_base_manpower = 3
				}
			}
			hidden_effect = {
				4565 = {
					change_variable = {
						which = BimLauTombPower
						value = 10
					}
				}
				bim_lau_spirit_power = yes
			}
			harimars_cradle_area = {
				limit = {
					NOT = { is_core = ROOT }
					NOT = { is_permanent_claim = ROOT }
				}
				add_permanent_claim = ROOT
			}
		}
	}
}

bim_lau_fourth_slot_1 = {
	slot = 4
	generic = no
	ai = yes
	potential = {
		tag = Y51
	}
	has_country_shield = yes
	
	Y51_phangban_campaign = {
		icon = mission_growth_of_surat
		required_missions = { Y51_reestablish_dominion }
		position = 2
		provinces_to_highlight = {
			province_id = 4396
		}
		
		trigger = {
			4396 = {
				country_or_non_sovereign_subject_holds = ROOT
			}
		}
		
		effect = {
			add_adm_power = 50
			add_dip_power = 50
			add_mil_power = 50
		}
	}
	
	Y51_restore_phangban = {
		icon = mission_seize_the_bengal_coast
		required_missions = { Y51_phangban_campaign }
		position = 3
		provinces_to_highlight = {
			province_id = 4396
		}
		
		trigger = {
			4396 = {
				owned_by = ROOT
				has_fort_building_trigger = yes
				has_manpower_building_trigger = yes
				base_manpower = 6
			}
		}
		
		effect = {
			custom_tooltip = bim_lau_spirit_update_tt
			if = {
				limit = {
					4396 = { NOT = { has_province_modifier = Y51_spirit_fort } }
				}
				4396 = {
					add_permanent_province_modifier = {
						name = Y51_spirit_fort
						duration = -1
					}
					add_base_manpower = 3
				}
			}
			li_btei_area = {
				limit = {
					NOT = { is_core = ROOT }
					NOT = { is_permanent_claim = ROOT }
				}
				add_permanent_claim = ROOT
			}
			hidden_effect = {
				4565 = {
					change_variable = {
						which = BimLauTombPower
						value = 10
					}
				}
				bim_lau_spirit_power = yes
			}
		}
	}
	
	Y51_fortify_west = {
		icon = mission_demand_garjat_fealty
		required_missions = { Y51_restore_phangban }
		position = 4
		provinces_to_highlight = {
			area = li_btei_area
		}
		
		trigger = {
			li_btei_area = {
				type = all
				country_or_non_sovereign_subject_holds = ROOT
			}
			4561 = {
				owned_by = ROOT
				has_fort_building_trigger = yes
				has_manpower_building_trigger = yes
				base_manpower = 6
			}
		}
		
		effect = {
			custom_tooltip = bim_lau_spirit_update_tt
			if = {
				limit = {
					4561 = { NOT = { has_province_modifier = Y51_spirit_fort } }
				}
				4561 = {
					add_permanent_province_modifier = {
						name = Y51_spirit_fort
						duration = -1
					}
					add_base_manpower = 3
				}
			}
			hidden_effect = {
				4565 = {
					change_variable = {
						which = BimLauTombPower
						value = 10
					}
				}
				bim_lau_spirit_power = yes
			}
		}
	}
	
	Y51_fortify_east = {
		icon = mission_demand_garjat_fealty
		required_missions = { Y51_far_east }
		position = 5
		provinces_to_highlight = {
			area = btandaukhi_area
		}
		
		trigger = {
			btandaukhi_area = {
				type = all
				country_or_non_sovereign_subject_holds = ROOT
			}
			4802 = {
				owned_by = ROOT
				has_fort_building_trigger = yes
				has_manpower_building_trigger = yes
				base_manpower = 6
			}
		}
		
		effect = {
			custom_tooltip = bim_lau_spirit_update_tt
			if = {
				limit = {
					4802 = { NOT = { has_province_modifier = Y51_spirit_fort } }
				}
				4802 = {
					add_permanent_province_modifier = {
						name = Y51_spirit_fort
						duration = -1
					}
					add_base_manpower = 3
				}
			}
			hidden_effect = {
				4565 = {
					change_variable = {
						which = BimLauTombPower
						value = 10
					}
				}
				bim_lau_spirit_power = yes
			}
		}
	}
}

bim_lau_fourth_slot_2 = {
	slot = 4
	generic = no
	ai = yes
	potential = {
		tag = Y51
		has_country_flag = bim_lau_normal_missions
	}
	has_country_shield = yes
	
	Y51_influence_east = {
		icon = mission_invade_the_deccan_ori
		required_missions = { Y51_pearl_of_bomdan }
		position = 8
		provinces_to_highlight = {
			area = khangleu_thuing_area
			NOT = {
				country_or_non_sovereign_subject_holds = ROOT
			}
			
		}
		
		trigger = {
			khangleu_thuing_area = {
				type = all
				country_or_non_sovereign_subject_holds = ROOT
			}
		}
		
		effect = {
			if = {
				limit = {
					exists = Y55
				}
				add_casus_belli = {
					target = Y55
					type = cb_vassalize_mission
				}
			}
			khabtei_teleni_area = {
				limit = {
					NOT = { is_core = ROOT }
					NOT = { is_permanent_claim = ROOT }
				}
				add_permanent_claim = ROOT
			}
		}
	}
	
	Y51_restore_teleni = {
		icon = mission_seize_the_bengal_coast
		required_missions = { Y51_influence_east }
		position = 9
		provinces_to_highlight = {
			province_id = 4580
		}
		
		trigger = {
			4580 = {
				owned_by = ROOT
				has_fort_building_trigger = yes
				has_manpower_building_trigger = yes
				base_manpower = 6
			}
		}
		
		effect = {
			custom_tooltip = bim_lau_spirit_update_tt
			if = {
				limit = {
					4580 = { NOT = { has_province_modifier = Y51_spirit_fort } }
				}
				4580 = {
					add_permanent_province_modifier = {
						name = Y51_spirit_fort
						duration = -1
					}
					add_base_manpower = 3
				}
			}
			hidden_effect = {
				4565 = {
					change_variable = {
						which = BimLauTombPower
						value = 10
					}
				}
				bim_lau_spirit_power = yes
			}
		}
	}
}

bim_lau_fourth_slot_3 = {
	slot = 4
	generic = no
	ai = yes
	potential = {
		tag = Y51
		has_country_flag = harimari_supremacy_succession
	}
	has_country_shield = yes
	
	Y51_into_dhujat = {
		icon = mission_abu_saids_dream
		required_missions = { Y51_new_capital }
		position = 9
		provinces_to_highlight = {
			area = keyattordha_area
			NOT = {
				country_or_non_sovereign_subject_holds = ROOT
			}
		}
		
		trigger = {
			keyattordha_area = {
				type = all
				country_or_non_sovereign_subject_holds = ROOT
			}
		}
		
		effect = {
			tavharaan_area = {
				limit = {
					NOT = { is_core = ROOT }
					NOT = { is_permanent_claim = ROOT }
				}
				add_permanent_claim = ROOT
			}
			maharaaja_area = {
				limit = {
					NOT = { is_core = ROOT }
					NOT = { is_permanent_claim = ROOT }
				}
				add_permanent_claim = ROOT
			}
			buhaanjirgal_area = {
				limit = {
					NOT = { is_core = ROOT }
					NOT = { is_permanent_claim = ROOT }
				}
				add_permanent_claim = ROOT
			}
			maldeelakhan_area = {
				limit = {
					NOT = { is_core = ROOT }
					NOT = { is_permanent_claim = ROOT }
				}
				add_permanent_claim = ROOT
			}
		}
	}
	
	Y51_northern_raj = {
		icon = mission_conquer_maharashtra
		required_missions = { Y51_into_dhujat }
		position = 10
		provinces_to_highlight = {
			OR = {
				area = tavharaan_area
				area = maharaaja_area
				area = buhaanjirgal_area
			}
			NOT = {
				country_or_non_sovereign_subject_holds = ROOT
			}
		}
		
		trigger = {
			tavharaan_area = {
				type = all
				country_or_non_sovereign_subject_holds = ROOT
			}
			maharaaja_area = {
				type = all
				country_or_non_sovereign_subject_holds = ROOT
			}
			buhaanjirgal_area = {
				type = all
				country_or_non_sovereign_subject_holds = ROOT
			}
		}
		
		effect = {
			banjiraal_area = {
				limit = {
					NOT = { is_core = ROOT }
					NOT = { is_permanent_claim = ROOT }
				}
				add_permanent_claim = ROOT
			}
			banjisbid_area = {
				limit = {
					NOT = { is_core = ROOT }
					NOT = { is_permanent_claim = ROOT }
				}
				add_permanent_claim = ROOT
			}
			bidhilar_area = {
				limit = {
					NOT = { is_core = ROOT }
					NOT = { is_permanent_claim = ROOT }
				}
				add_permanent_claim = ROOT
			}
			4510 = {
				add_permanent_claim = ROOT
			}
		}
	}
	
	Y51_northern_fort = {
		icon = mission_seize_the_bengal_coast
		required_missions = { Y51_northern_raj }
		position = 11
		provinces_to_highlight = {
			province_id = 4510
		}
		
		trigger = {
			4510 = {
				owned_by = ROOT
				has_fort_building_trigger = yes
				has_manpower_building_trigger = yes
				base_manpower = 6
			}
		}
		
		effect = {
			custom_tooltip = bim_lau_spirit_update_tt
			if = {
				limit = {
					4510 = { NOT = { has_province_modifier = Y51_spirit_fort } }
				}
				4510 = {
					add_permanent_province_modifier = {
						name = Y51_spirit_fort
						duration = -1
					}
					add_base_manpower = 3
				}
			}
			hidden_effect = {
				4565 = {
					change_variable = {
						which = BimLauTombPower
						value = 10
					}
				}
				bim_lau_spirit_power = yes
			}
		}
	}
}

bim_lau_fifth_slot = {
	slot = 5
	generic = no
	ai = yes
	potential = {
		tag = Y51
	}
	has_country_shield = yes
	
	Y51_reestablish_dominion = {
		icon = mission_junnagadh_fort
		position = 1
		provinces_to_highlight = {
			area = khung_btei_area
			NOT = {
				country_or_non_sovereign_subject_holds = ROOT
			}
		}
		
		trigger = {
			khung_btei_area = {
				type = all
				country_or_non_sovereign_subject_holds = ROOT
			}
		}
		
		effect = {
			semphrerong_area = {
				limit = {
					NOT = { is_core = ROOT }
					NOT = { is_permanent_claim = ROOT }
				}
				add_permanent_claim = ROOT
			}
			4607 = {
				add_permanent_claim = ROOT
			}
			4396 = {
				add_permanent_claim = ROOT
			}
		}
	}
	
	Y51_revenge_north = {
		icon = mission_advance_to_the_arabian_sea
		required_missions = { Y51_reestablish_dominion }
		position = 2
		provinces_to_highlight = {
			area = semphrerong_area
			NOT = {
				country_or_non_sovereign_subject_holds = ROOT
			}
		}
		
		trigger = {
			semphrerong_area = {
				type = all
				country_or_non_sovereign_subject_holds = ROOT
			}
		}
		
		effect = {
			dekphre_area = {
				limit = {
					NOT = { is_core = ROOT }
					NOT = { is_permanent_claim = ROOT }
				}
				add_permanent_claim = ROOT
			}
			4947 = {
				add_permanent_claim = ROOT
			}
		}
	}
	
	Y51_confirm_hegemony = {
		icon = mission_conquer_kannauj
		required_missions = { Y51_revenge_north }
		position = 3
		provinces_to_highlight = {
			OR = {
				province_id = 4947
				area = dekphre_area
			}
			NOT = {
				country_or_non_sovereign_subject_holds = ROOT
			}
		}
		
		trigger = {
			4795 = {
				country_or_non_sovereign_subject_holds = ROOT
			}
			4796 = {
				country_or_non_sovereign_subject_holds = ROOT
			}
			4605 = {
				country_or_non_sovereign_subject_holds = ROOT
			}
			if = {
				limit = {
					exists = Y58
				}
				total_own_and_non_tributary_subject_development = Y58
				army_strength = {
                    who = Y58
	                value = 1.5
                }
			}
		}
		
		effect = {
			sadramver_area = {
				limit = {
					NOT = { is_core = ROOT }
					NOT = { is_permanent_claim = ROOT }
				}
				add_permanent_claim = ROOT
			}
			if = {
				limit = {
					exists = Y58
				}
				add_casus_belli = {
					target = Y58
					type = cb_vassalize_mission
				}
				remove_historical_rival = Y58
				Y58 = {
					remove_historical_rival = ROOT
				}
			}
		}
	}
	
	Y51_far_east = {
		icon = mission_manchu_warrior
		required_missions = { Y51_confirm_hegemony }
		position = 4
		provinces_to_highlight = {
			area = sadramver_area
			NOT = {
				country_or_non_sovereign_subject_holds = ROOT
			}
		}
		
		trigger = {
			sadramver_area = {
				type = all
				country_or_non_sovereign_subject_holds = ROOT
			}
		}
		
		effect = {
			banhlubei_area = {
				limit = {
					NOT = { is_core = ROOT }
					NOT = { is_permanent_claim = ROOT }
				}
				add_permanent_claim = ROOT
			}
			btandaukhi_area = {
				limit = {
					NOT = { is_core = ROOT }
					NOT = { is_permanent_claim = ROOT }
				}
				add_permanent_claim = ROOT
			}
		}
	}
	
	Y51_unify_east = {
		icon = mission_unite_home_region
		required_missions = { Y51_far_east }
		position = 5
		provinces_to_highlight = {
			OR = {
				area = banhlubei_area
				area = btandaukhi_area
			}
			NOT = {
				country_or_non_sovereign_subject_holds = ROOT
			}
		}
		
		trigger = {
			banhlubei_area = {
				type = all
				country_or_non_sovereign_subject_holds = ROOT
			}
			btandaukhi_area = {
				type = all
				country_or_non_sovereign_subject_holds = ROOT
			}
		}
		
		effect = {
			nagon_area = {
				limit = {
					NOT = { is_core = ROOT }
					NOT = { is_permanent_claim = ROOT }
				}
				add_permanent_claim = ROOT
			}
			nui_phom_area = {
				limit = {
					NOT = { is_core = ROOT }
					NOT = { is_permanent_claim = ROOT }
				}
				add_permanent_claim = ROOT
			}
			khom_ma_area = {
				limit = {
					NOT = { is_core = ROOT }
					NOT = { is_permanent_claim = ROOT }
				}
				add_permanent_claim = ROOT
			}
		}
	}
	
	Y51_chastize_upstarts = {
		icon = mission_destroyed_city
		required_missions = { Y51_southern_reclamation }
		position = 7
		
		trigger = {
			if = {
				limit = {
					exists = R38
				}
				total_own_and_non_tributary_subject_development = R38
				army_strength = {
                    who = R38
	                value = 1.5
                }
			}
			else = {
				owns_core_province = 4420
			}
		}
		
		effect = {
			if = {
				limit = {
					exists = R38
				}
				add_casus_belli = {
					target = R38
					type = cb_vassalize_mission
				}
			}
			else = {
				4420 = {
					if = {
						limit = { 	province_has_center_of_trade_of_level = 3 }
						add_base_production = 2 
					}
					else = {
						add_center_of_trade_level = 1 
					}
				}
			}
		}
	}
	
	Y51_control_kharunyana = {
		icon = mission_hanseatic_city
		required_missions = { Y51_chastize_upstarts }
		position = 8
		provinces_to_highlight = {
			province_id = 4420
		}
		
		trigger = {
			owns_core_province = 4420
			4420 = {
				province_has_center_of_trade_of_level = 3
				has_trade_building_trigger = yes
			}
		}
		
		effect = {
			add_country_modifier = {
				name = "competitive_advantage"
				duration = 9125
			}
			add_mercantilism = 5
			ROOT = {
				light_ship = 4420
			}
			ROOT = {
				light_ship = 4420
			}
			ROOT = {
				light_ship = 4420
			}
			ROOT = {
				light_ship = 4420
			}
			ROOT = {
				light_ship = 4420
			}
			ROOT = {
				light_ship = 4420
			}
			ROOT = {
				light_ship = 4420
			}
			ROOT = {
				light_ship = 4420
			}
			ROOT = {
				light_ship = 4420
			}
			ROOT = {
				light_ship = 4420
			}
		}
	}
	
	Y51_strengthen_capital_trade = {
		icon = mission_war_chest
		required_missions = { Y51_control_kharunyana }
		position = 9
		provinces_to_highlight = {
			province_id = 4565
		}
		
		trigger = {
			owns_core_province = 4565
			4565 = {
				base_production = 20
				has_trade_building_trigger = yes
			}
		}
		
		effect = {
			4565 = {
				center_of_trade = 1
			}
		}
	}
}