# 
rezankand_1_a = {
	slot = 1
	generic = no
	ai = yes
	has_country_shield = yes
	
	potential = {
		tag = H66
	}
	
	
	H67_prepare_the_army = {
		icon = mission_defeat_muscovy
		position = 1
		
		provinces_to_highlight = {
			region = dry_coast_region
		}
		
		trigger = {
			ai = no
			capital_scope = { region = dry_coast_region }
			NOT = {
				num_of_owned_provinces_with = {
					value = 2
					owned_by = ROOT
				}
			}
			OR = {
				army_size = 20
				mil_power = 100
			}
		}
		
		effect = {
			custom_tooltip = rezankand_cortez_tooltip
			if = { 
				limit = { 
					NOT = { army_size = 20 } 
				}
				add_mil_power = -100
			}
			add_country_modifier = {
				name = rezankand_migration
				duration = 7300
			}
		}
	}
	
	H67_cortez_arrival = {
		icon = mission_conquer_romania
		position = 2
		
		required_missions = {
			H67_prepare_the_army
		}
		
		trigger = {
			capital_scope = { region = dry_coast_region }
			NOT = { 
				num_of_owned_provinces_with = {
					value = 2
					owned_by = ROOT
				}
			}
			mil_power = 75
			dip_power = 75
		}
		
		effect = {
			add_mil_power = -75
			add_dip_power = -75
			add_manpower = 15
			add_treasury = 500
			define_conquistador = {
				name = "Kortazel"
				fire = 5
				shock = 9
				manuever = 4
				siege = 5
			}
			taychend_region  = {
				limit = {
					NOT = { is_core = ROOT }
					NOT = { is_claim = ROOT }
					NOT = { is_permanent_claim = ROOT }
				}
				add_claim = ROOT
			}
		}
	}
	
	H67_the_first_expedition = {
		icon = mission_levantine_restoration
		position = 3
		
		required_missions = {
			H67_cortez_arrival
		}
		
		trigger = {
			capital_scope = { region = dry_coast_region }
			NOT = { 
				num_of_owned_provinces_with = {
					value = 2
					owned_by = ROOT
				}
			}
			at_war_with_religious_enemy = yes
		}
		
		effect = {
			add_country_modifier = {
				name = rezankand_first_expedition
				duration = 3650
			}
			add_manpower = 15
			add_mil_power = 200
		}
	}
	
	H67_fill_the_wagon = {
		icon = mission_dominate_persian_gulf
		position = 4
		
		required_missions = {
			H67_the_first_expedition
		}
		
		provinces_to_highlight = {
			region = taychend_region
		}
		
		trigger = {
			is_at_war = no
			dip_power = 400
			mil_power = 400
			adm_power = 400
			capital_scope = {
				region = dry_coast_region
			}
			num_of_owned_provinces_with = {
				value = 10
				
				region = taychend_region
			}
		}
		
		effect = {
			add_dip_power = -400
			add_adm_power = -400
			add_mil_power = -400
			add_prestige = 75
			custom_tooltip = rezankand_conquest_tooltip
			hidden_effect = {
				set_country_flag = rezankand_cortez_conquest
				while = {
					limit = {
						any_owned_province = {
							region = taychend_region
							NOT = { has_province_modifier = rezankand_pillaged_province }
						}
					}
					random_owned_province = {
						limit = { 
							region = taychend_region 
							NOT = { has_province_modifier = rezankand_pillaged_province }
						}
						add_permanent_province_modifier = {
							name = rezankand_pillaged_province
							duration = 14600
						}
						remove_core = ROOT
						cede_province = previous_owner
						# change_religion = previous_owner
						save_event_target_as = this_province
						owner = { change_religion = event_target:this_province }
						add_next_institution_embracement = 25
						add_devastation = 50
					}
					add_treasury = 100
					add_prestige = 2
					capital_scope = {
						change_trade_goods = silk
						add_prosperity = 100
						add_permanent_province_modifier = {
							name = rezankand_cortez_legacy
							duration = 36500
						}
					}
					if = {
						limit = { NOT = { capital_scope = { development = 40 } } }
						random = {
							chance = 50
							capital_scope = { add_base_production = 1 }
						}
						random = {
							chance = 50
							capital_scope = { add_base_tax = 1 }
						}
						random = {
							chance = 50
							capital_scope = { add_base_manpower = 1 }
						}
					}
					else_if = {
						limit = { NOT = { capital_scope = { development = 65 } } }
						random = {
							chance = 33
							capital_scope = { add_base_production = 1 }
						}
						random = {
							chance = 33
							capital_scope = { add_base_tax = 1 }
						}
						random = {
							chance = 33
							capital_scope = { add_base_manpower = 1 }
						}
						add_treasury = 50
					}
					else_if = {
						limit = { NOT = { capital_scope = { development = 85 } } }
						random = {
							chance = 20
							capital_scope = { add_base_production = 1 }
						}
						random = {
							chance = 20
							capital_scope = { add_base_tax = 1 }
						}
						random = {
							chance = 20
							capital_scope = { add_base_manpower = 1 }
						}
						add_treasury = 75
					}
					else_if = {
						limit = { NOT = { capital_scope = { development = 120 } } }
						random = {
							chance = 10
							capital_scope = { add_base_production = 1 }
						}
						random = {
							chance = 10
							capital_scope = { add_base_tax = 1 }
						}
						random = {
							chance = 10
							capital_scope = { add_base_manpower = 1 }
						}
						add_treasury = 100
					}
					else = {
						add_treasury = 125
					}
				}
				every_country = {
					limit = {
						OR = {
							capital_scope = { region = taychend_region }
							capital_scope = { region = larankarha_highlands_region }
						}
					}
					add_historical_rival = H66
					add_historical_rival = H67
					add_trust = {
						who = H66
						value = -25
					}
					add_trust = {
						who = H67
						value = -25
					}
				}
			}
			remove_country_modifier = rezankand_migration
		}
	}
}


rezankand_1_b = {
	slot = 1
	generic = no
	ai = yes
	has_country_shield = yes
	
	potential = {
		tag = H67
	}
	
	
	H67_build_the_sunny_road = {
		icon = mission_arabian_fort
		ai = yes
		position = 1
		
		provinces_to_highlight = {
			OR = {
				province_id = 2336
				province_id = 2335
				province_id = 2333
				province_id = 2332
				province_id = 2331
				province_id = 2308
				province_id = 2307
				province_id = 2306
				province_id = 2305
				province_id = 2304
				province_id = 2302
			}
			
			NOT = { owned_by = ROOT }
		}
		
		trigger = {
			owns = 2336
			owns = 2335
			owns = 2333
			owns = 2332
			owns = 2331
			owns = 2308
			owns = 2307
			owns = 2306
			owns = 2305
			owns = 2304
			owns = 2302
			treasury = 1250
			manpower = 10
		}
		
		effect = {
			add_treasury = -1250
			add_manpower = -10
			custom_tooltip = rezankand_more_immigration_tooltip
			2336 = {
				add_permanent_province_modifier = {
					name = rezankand_sunny_road
					duration = -1
				}
			}
			2335 = {
				add_permanent_province_modifier = {
					name = rezankand_sunny_road
					duration = -1
				}
			}
			2333 = {
				add_permanent_province_modifier = {
					name = rezankand_sunny_road
					duration = -1
				}
			}
			2332 = {
				add_permanent_province_modifier = {
					name = rezankand_sunny_road
					duration = -1
				}
			}
			2331 = {
				add_permanent_province_modifier = {
					name = rezankand_sunny_road
					duration = -1
				}
			}
			2308 = {
				add_permanent_province_modifier = {
					name = rezankand_sunny_road
					duration = -1
				}
			}
			2307 = {
				add_permanent_province_modifier = {
					name = rezankand_sunny_road
					duration = -1
				}
			}
			2306 = {
				add_permanent_province_modifier = {
					name = rezankand_sunny_road
					duration = -1
				}
			}
			2305 = {
				add_permanent_province_modifier = {
					name = rezankand_sunny_road
					duration = -1
				}
			}
			2304 = {
				add_permanent_province_modifier = {
					name = rezankand_sunny_road
					duration = -1
				}
			}
			2302 = {
				add_permanent_province_modifier = {
					name = rezankand_sunny_road
					duration = -1
				}
			}
		}
	}
	
	H67_exploit_the_jungle = {
		icon = mission_iberian_conquistador
		ai = yes
		position = 2
		
		trigger = {
			num_of_owned_provinces_with = {
				value = 7
				
				trade_goods = tropical_wood
			}
		}
		
		effect = {
			add_country_modifier = {
				name = rezankand_build_boat
				duration = 18250
			}
		}
	}
	
	H67_golden_armada = {
		icon = mission_spanish_armada
		ai = yes
		position = 2
		
		required_missions = {
			H67_exploit_the_jungle
		}
		
		trigger = {
			num_of_heavy_ship = 30
		}
		
		effect = {
			define_admiral = {
				name = "Filarion"
				shock = 3
				fire = 6
				manuever = 5
				siege = 3
			}
			add_country_modifier = {
				name = rezankand_golden_armada
				duration = 10950
			}
		}
	}
	
	H67_militarize_capital = {
		icon = mission_invade_gujarat
		ai = yes
		position = 6
		
		required_missions = {
			H67_develop_capital
		}
		
		trigger = {
			stability = 3
			mil_power = 200
		}
		
		effect = {
			custom_tooltip = rezankand_militarize_capital_tooltip
			add_mil_power = -200
			hidden_effect = { set_country_flag = rezankand_militarize_capital }
		}
	}
	
	H67_improve_administration = {
		icon = mission_asian_trader
		ai = yes
		position = 7
		
		required_missions = {
			H67_militarize_capital
		}
		
		trigger = {
			adm_power = 100
			stability = 3
			custom_trigger_tooltip = {
				tooltip = capital_militarized_tooltip
				capital_scope = {
					has_province_modifier = rezankand_militarize_census
					has_province_modifier = rezankand_militarize_wall
					has_province_modifier = rezankand_officier_academy
				}
			}
		}
		
		effect = {
			remove_country_modifier = legacy_of_adventurers_modifier
			add_adm_power = -100
			if = {
				limit = { NOT = { has_country_modifier = legacy_of_adventurers_modifier } }
				define_advisor = {
					type = inquisitor
					skill = 3
					name = "Naeryndam Venquinal"
					discount = yes
				}
			}
		}
	}
	
	H67_indivisible_people = {
		icon = mission_scholar_officials
		ai = yes
		position = 8
		
		trigger = {
			if = {
				limit = { government = monarchy ai = no }
				legitimacy = 95
			}
			stability = 3
			religious_unity = 0.85
			adm_power = 100
		}
		
		effect = {
			add_adm_power = -100
			add_country_modifier = {
				name = rezankand_indivisible_people
				duration = 18250
			}
			country_event = { id = rezankand.2 days = 720 random = 360 }
		}
	}
	
	H67_embrace_our_destiny = {
		icon = mission_embrace_our_destiny
		ai = yes
		position = 9
		
		required_missions = {
			H67_indivisible_people
		}
		
		trigger = {
			custom_trigger_tooltip = {
				tooltip = rezankand_dawn_elf_tooltip
				has_country_flag = rezankand_dawn_elf
			}
			adm_power = 100
			dip_power = 100
			mil_power = 100
		}
		
		effect = {
			add_adm_power = -100
			add_mil_power = -100
			add_dip_power = -100
			country_event = { id = rezankand.3 }
		}
	}
	
	H67_burn_them_all = {
		icon = mission_rb_control_state_religion
		ai = yes
		position = 11
		
		required_missions = {
			H67_embrace_our_destiny
			H67_the_burning_expedition
		}
		
		provinces_to_highlight = {
			OR = {
				region = taychend_region
			}
			
			NOT = { owned_by = ROOT }
		}
		
		trigger = {
			num_of_owned_provinces_with = {
				value = 60
				region = taychend_region
			}
			capital_scope = { region = dry_coast_region }
		}
		
		effect = {
			taychend_region = {
				limit = { owned_by = ROOT }
				add_base_manpower = -1
				add_base_production = -1
				add_base_tax = -1
				add_permanent_province_modifier = {
					name = rezankand_consecrated_land
					duration = 29200
				}
			}
			capital_scope = {
				add_base_manpower = 1
				add_base_tax = 1
				add_base_production = 1
				region = {
					add_base_manpower = 2
					add_base_tax = 2
					add_base_production = 2
				}
				add_permanent_province_modifier = {
					name = rezankand_taychend_riches
					duration = -1
				}
			}
		}
	}
	
	H67_in_the_name_of_the_fallen = {
		icon = mission_in_the_name_of_the_fallen
		ai = yes
		position = 15
		
		required_missions = {
			H67_burn_them_all
			H67_hot_knife_through_butter
		}
		
		provinces_to_highlight = {
			OR = {
				region = andic_reach_region
				region = devand_region
				region = mteibas_valley_region
			}
			
			NOT = { owned_by = ROOT }
		}
		
		trigger = {
			num_of_owned_provinces_with = {
				value = 90
				OR = {
					region = andic_reach_region
					region = devand_region
					region = mteibas_valley_region
				}
			}
			capital_scope = { region = dry_coast_region }
		}
		
		effect = {
			andic_reach_region = {
				limit = { owned_by = ROOT }
				add_base_manpower = -1
				add_base_production = -1
				add_base_tax = -1
				add_permanent_province_modifier = {
					name = rezankand_consecrated_land
					duration = 29200
				}
			}
			devand_region = {
				limit = { owned_by = ROOT }
				add_base_manpower = -1
				add_base_production = -1
				add_base_tax = -1
				add_permanent_province_modifier = {
					name = rezankand_consecrated_land
					duration = 29200
				}
			}
			mteibas_valley_region = {
				limit = { owned_by = ROOT }
				add_base_manpower = -1
				add_base_production = -1
				add_base_tax = -1
				add_permanent_province_modifier = {
					name = rezankand_consecrated_land
					duration = 29200
				}
			}
			capital_scope = {
				add_base_manpower = 2
				add_base_tax = 2
				add_base_production = 2
				region = {
					add_base_manpower = 3
					add_base_tax = 3
					add_base_production = 3
				}
				add_permanent_province_modifier = {
					name = rezankand_kheionia_riches
					duration = -1
				}
			}
		}
	}
	
	H67_arise_from_the_ashes = {
		icon = mission_arise_ashes
		ai = yes
		position = 16
		
		required_missions = {
			H67_in_the_name_of_the_fallen
		}
		
		provinces_to_highlight = {
			OR = {
				region = taychend_region
				region = larankarha_highlands_region
				region = chendhya_region
			}
			
			NOT = { 
				has_owner_religion = yes
			}
		}
		
		trigger = {
			num_of_owned_provinces_with = {
				value = 115
				OR = {
					region = taychend_region
					region = larankarha_highlands_region
					region = chendhya_region
				}
				has_owner_religion = yes
			}
			religion = bulwari_sun_cult
		}
		
		effect = {
			country_event = { id = rezankand.4 }
		}
	}
}

rezankand_2_a = {
	slot = 2
	generic = no
	ai = yes
	has_country_shield = yes
	
	potential = {
		OR = {
			tag = H66
			tag = H67
		}
	}
	
	H67_expand_capital = {
		icon = mission_early_game_buildings
		ai = yes
		position = 4
		
		required_missions = {
			H67_establish_spearhead
		}
		
		trigger = {
			if = {
				limit = { ai = yes }
				years_of_income = 0.5
				adm_power = 50
				dip_power = 75
			}
			else = {
				capital_scope = { development = 15 }
			}
		}
		
		effect = {
			if = {
				limit = { ai = yes }
				capital_scope = {
					add_base_manpower = 3
					add_base_production = 3
					add_base_tax = 3
				}
			}
			capital_scope = {
				add_province_modifier = {
					name = rezankand_growing_capital
					duration = 3650
				}
			}
		}
	}
	
	H67_develop_capital = {
		icon = mission_found_havana
		ai = yes
		position = 5
		
		required_missions = {
			H67_expand_capital
			H67_create_immigration_office
		}
		
		trigger = {
			if = {
				limit = { ai = yes }
				dip_power = 100
				mil_power = 100
				adm_power = 100
			}
			else = {
				capital_scope = { development = 30 }
			}
		}
		
		effect = {
			if = {
				limit = { NOT = { capital_scope = { province_has_center_of_trade_of_level = 1 } } }
				capital_scope = { center_of_trade = 1 }
			}
			else_if = {
				limit = { NOT = { capital_scope = { province_has_center_of_trade_of_level = 3 } } }
				capital_scope = { add_center_of_trade_level = 1 }
			}
			else = {
				capital_scope = {
					add_base_manpower = 1
					add_base_production = 1
					add_base_tax = 1
				}				
			}
			capital_scope = {
				add_base_manpower = 1
				add_base_production = 1
				add_base_tax = 1
			}
			if = {
				limit = { ai = yes }
				capital_scope = {
					add_base_manpower = 3
					add_base_production = 3
					add_base_tax = 3
				}
			}
		}
	}
}

rezankand_2_b = {
	slot = 2
	generic = no
	ai = yes
	has_country_shield = yes
	
	potential = {
		OR = {
			tag = H67
		}
	}
	
	H67_elven_sea = {
		icon = mission_aragonese_navy
		ai = yes
		position = 6
		
		required_missions = {
			H67_expand_territory
		}
		
		provinces_to_highlight = {
			region = severed_coast_region
			
			NOT = { owned_by = ROOT }
		}
		
		trigger = {
			num_of_owned_provinces_with = {
				value = 4
				
				region = severed_coast_region
			}
		}
		
		effect = {
			severed_coast_region  = {
				limit = {
					NOT = { is_core = ROOT }
					NOT = { is_permanent_claim = ROOT }
				}
				add_permanent_claim = ROOT
			}
		}
	}
	
	H67_united_coast = {
		icon = mission_rb_take_gibraltar
		ai = yes
		position = 7
		
		required_missions = {
			H67_elven_sea
		}
		
		provinces_to_highlight = {
			region = severed_coast_region
			
			NOT = { owned_by = ROOT }
		}
		
		trigger = {
			num_of_owned_provinces_with = {
				value = 14
				
				region = severed_coast_region
			}
		}
		
		effect = {
			add_stability_or_adm_power = yes
			add_dip_power = 150
			add_prestige = 15
		}
	}
	
	H67_azka_traz = {
		icon = mission_golden_century
		ai = yes
		position = 8
		
		required_missions = {
			H67_taychend_path
		}
		
		provinces_to_highlight = {
			province_id = 2507
		}
		
		trigger = {
			2507 = {
				owned_by = ROOT
				has_fort_building_trigger = yes
			}
		}
		
		effect = {
			2507 = {
				add_permanent_province_modifier = {
					name = rezankand_azka_traz
					duration = 36500
				}
			}
			uesrenti_area  = {
				limit = {
					NOT = { is_core = ROOT }
					NOT = { is_permanent_claim = ROOT }
				}
				add_permanent_claim = ROOT
			}
			maraikilaiek_area  = {
				limit = {
					NOT = { is_core = ROOT }
					NOT = { is_permanent_claim = ROOT }
				}
				add_permanent_claim = ROOT
			}
			nanru_nakar_area  = {
				limit = {
					NOT = { is_core = ROOT }
					NOT = { is_permanent_claim = ROOT }
				}
				add_permanent_claim = ROOT
			}
			kanurkattvya_area  = {
				limit = {
					NOT = { is_core = ROOT }
					NOT = { is_permanent_claim = ROOT }
				}
				add_permanent_claim = ROOT
			}
			palayapirsi_area  = {
				limit = {
					NOT = { is_core = ROOT }
					NOT = { is_permanent_claim = ROOT }
				}
				add_permanent_claim = ROOT
			}
		}
	}
	
	H67_first_taychend_step = {
		icon = mission_humiliate_provence
		ai = yes
		position = 9
		
		required_missions = {
			H67_azka_traz
		}
		
		provinces_to_highlight = {
			region = taychend_region
			
			NOT = { owned_by = ROOT }
		}
		
		trigger = {
			num_of_owned_provinces_with = {
				value = 10
				
				region = taychend_region
			}
		}
		
		effect = {
			add_prestige = 10
			taychend_region  = {
				limit = {
					NOT = { is_core = ROOT }
					NOT = { is_permanent_claim = ROOT }
				}
				add_permanent_claim = ROOT
			}
		}
	}
	
	H67_the_burning_expedition = {
		icon = mission_protect_albania
		ai = yes
		position = 10
		
		required_missions = {
			H67_first_taychend_step
		}
		
		provinces_to_highlight = {
			region = taychend_region
			
			NOT = { owned_by = ROOT }
		}
		
		trigger = {
			num_of_owned_provinces_with = {
				value = 40
				
				region = taychend_region
			}
		}
		
		effect = {
			add_prestige = 15
			add_years_of_income = 0.5
			larankarha_highlands_region  = {
				limit = {
					NOT = { is_core = ROOT }
					NOT = { is_permanent_claim = ROOT }
				}
				add_permanent_claim = ROOT
			}
		}
	}
	
	H67_conquer_larankarha = {
		icon = mission_steppe_warriors
		ai = yes
		position = 11
		
		required_missions = {
			H67_the_burning_expedition
		}
		
		provinces_to_highlight = {
			region = larankarha_highlands_region
			
			NOT = { owned_by = ROOT }
		}
		
		trigger = {
			num_of_owned_provinces_with = {
				value = 20
				
				region = larankarha_highlands_region
			}
		}
		
		effect = {
			add_prestige = 10
			add_years_of_income = 0.5
			chendhya_region  = {
				limit = {
					NOT = { is_core = ROOT }
					NOT = { is_permanent_claim = ROOT }
				}
				add_permanent_claim = ROOT
			}
		}
	}
	
	H67_taychend_charter = {
		icon = mission_trade_company_region_abroad
		ai = yes
		position = 12
		
		required_missions = {
			H67_conquer_larankarha
		}
		
		provinces_to_highlight = {
			region = taychend_region
			region = larankarha_highlands_region
			region = chendhya_region
			
			NOT = { owned_by = ROOT religion = bulwari_sun_cult }
		}
		
		trigger = {
			num_of_owned_provinces_with = {
				value = 100
				
				OR = {
					region = taychend_region
					region = larankarha_highlands_region
					region = chendhya_region
				}
			}
		}
		
		effect = {
			add_stability_or_adm_power = yes
			add_prestige = 25
			add_years_of_income = 1.5
		}
	}
	
	H67_the_ruan_expedition = {
		icon = mission_non-western_cavalry_raid
		ai = yes
		position = 13
		
		required_missions = {
			H67_taychend_charter
		}
		
		trigger = {
			if = {
				limit = { ai = no }
				
				OR = {
					army_size = 200
					army_size_percentage = 0.95
				}
				mil_power = 100
			}
			else = { army_size = 100 }
		}
		
		effect = {
			if = {
				limit = { ai = no }
				add_mil_power = -100
			}
			add_country_modifier = {
				name = rezankand_ruan_expedition
				duration = 7300
			}
			colonial_kheionai  = {
				limit = {
					NOT = { is_core = ROOT }
					NOT = { is_permanent_claim = ROOT }
				}
				add_permanent_claim = ROOT
			}
		}
	}
	
	H67_hot_knife_through_butter = {
		icon = mission_marathi_fiefs
		ai = yes
		position = 14
		
		required_missions = {
			H67_the_ruan_expedition
		}
		
		provinces_to_highlight = {
			OR = {
				region = andic_reach_region
				region = mteibas_valley_region
				region = devand_region
			}
			NOT = { owned_by = ROOT }
		}
		
		trigger = {
			num_of_owned_provinces_with = {
				value = 50
				
				OR = {
					region = andic_reach_region
					region = mteibas_valley_region
					region = devand_region
				}
			}
		}
		
		effect = {
			add_prestige = 10
			add_dip_power = 100
			add_mil_power = 100
			add_adm_power = 100
			add_country_modifier = {
				name = rezankand_kheionia_trade
				duration = 10950
			}
		}
	}
	
	H67_way_of_the_desert = {
		icon = mission_conquer_air
		ai = yes
		position = 17
		
		required_missions = {
			H67_the_great_expedition
		}
		
		provinces_to_highlight = {
			OR = {
				area = west_vanburia_area
				area = north_vanburia_area
				area = east_vanburia_area
			}
			
			NOT = { country_or_vassal_holds = ROOT }
		}
		
		trigger = {
			west_vanburia_area = {
				type = all
				country_or_vassal_holds = ROOT
			}
			north_vanburia_area = {
				type = all
				country_or_vassal_holds = ROOT
			}
			east_vanburia_area = {
				type = all
				country_or_vassal_holds = ROOT
			}
		}
		
		effect = {
			add_prestige = 10
			country_event = { id = rezankand.5 }
			if = {
				limit = {
					any_subject_country = {
						capital_scope = { colonial_region = colonial_haraf }
					}
				}
				random_subject_country = {
					limit = { capital_scope = { colonial_region = colonial_haraf } }
					colonial_haraf  = {
						limit = {
							NOT = { is_core = PREV }
							NOT = { is_permanent_claim = PREV }
						}
						add_permanent_claim = PREV
					}
				}
			}
			else = {
				colonial_haraf  = {
					limit = {
						NOT = { is_core = ROOT }
						NOT = { is_permanent_claim = ROOT }
						NOT = { is_claim = ROOT }
					}
					add_claim = ROOT
				}
			}
		}
	}
	
	H67_through_jungle_and_desert = {
		icon = mission_raid_on_genoa
		ai = yes
		position = 18
		
		required_missions = {
			H67_way_of_the_desert
		}
		
		provinces_to_highlight = {
			colonial_region = colonial_haraf
			
			NOT = { country_or_vassal_holds = ROOT }
		}
		
		trigger = {
			num_of_provinces_owned_or_owned_by_non_sovereign_subjects_with = {
				value = 45
				colonial_region = colonial_haraf
			}
		}
		
		effect = {
			add_prestige = 20
			add_mil_power = 100
			add_dip_power = 100
			if = {
				limit = {
					any_subject_country = {
						capital_scope = { superregion = eordand_superregion }
					}
				}
				random_subject_country = {
					limit = { capital_scope = { superregion = eordand_superregion } }
					eordand_superregion  = {
						limit = {
							NOT = { is_core = PREV }
							NOT = { is_permanent_claim = PREV }
						}
						add_permanent_claim = PREV
					}
				}
			}
			else = {
				eordand_superregion  = {
					limit = {
						NOT = { is_core = ROOT }
						NOT = { is_permanent_claim = ROOT }
						NOT = { is_claim = ROOT }
					}
					add_claim = ROOT
				}
			}
		}
	}
	
	H67_the_riches_of_eordand = {
		icon = mission_conquer_alexandria
		ai = yes
		position = 19
		
		required_missions = {
			H67_through_jungle_and_desert
		}
		
		provinces_to_highlight = {
			superregion = eordand_superregion
			is_city = yes
			NOT = { country_or_vassal_holds = ROOT }
		}
		
		trigger = {
			num_of_provinces_owned_or_owned_by_non_sovereign_subjects_with = {
				value = 60
				superregion = eordand_superregion
			}
		}
		
		effect = {
			add_prestige = 20
			add_mil_power = 100
			add_dip_power = 100
			add_years_of_income = 1
			capital_scope = {
				add_province_modifier = {
					name = rezankand_eordand_riches
					duration = -1
				}
			}
		}
	}
}

rezankand_3_a = {
	slot = 3
	generic = no
	ai = yes
	has_country_shield = yes
	
	potential = {
		OR = {
			tag = H66
			tag = H67
		}
	}
	
	H67_prepare_expeditionary_forces = {
		icon = mission_italian_condottiere
		ai = yes
		position = 1
		
		trigger = {
			if = {
				limit = { ai = no }
				army_size = 10
			}
			else = { army_size = 10 }
			NOT = { has_country_modifier = rezankand_migration }
		}
		
		effect = {
			define_conquistador = {
				name = "Qildor Keazorwyn"
				shock = 5
				fire = 1
				manuever = 5
				siege = 2
			}
			add_prestige = 15
		}
	}
	
	H67_map_the_terrain = {
		icon = mission_retake_ceuta
		ai = yes
		position = 2
		
		required_missions = {
			H67_prepare_expeditionary_forces
		}
		
		trigger = {
			dry_coast_region = {
				type = all
				has_discovered = ROOT
			}
		}
		
		effect = {
			add_prestige = 15
			add_splendor = 200
			add_dip_power = 75
			add_adm_power = 75
		}
	}
	
	H67_establish_spearhead = {
		icon = mission_galleys_in_port
		ai = yes
		position = 3
		
		required_missions = {
			H67_map_the_terrain
		}
		
		provinces_to_highlight = {
			area_for_scope_province = {
				is_capital_of = ROOT
			}
			NOT = { owned_by = ROOT }
		}
		
		trigger = {
			capital_scope = {
				area_for_scope_province = {
					type = all
					owned_by = ROOT
				}
			}
		}
		
		effect = {
			add_prestige = 10
			capital_scope = {
				area = {
					add_base_tax = 1
					add_base_manpower = 1
					add_base_production = 1
				}
			}
		}
	}
	
	H67_create_immigration_office = {
		icon = mission_sea_battles
		ai = yes
		position = 4
		
		required_missions = {
			H67_establish_spearhead
		}
		
		trigger = {
			dip_power = 150
			adm_power = 50
		}
		
		effect = {
			add_dip_power = -150
			add_adm_power = -50
			capital_scope = {
				add_permanent_province_modifier = {
					name = rezankand_immigration_office
					duration = 36500
				}
			}
		}
	}
	
	H67_expand_territory = {
		icon = mission_unite_home_region
		ai = yes
		position = 5
		
		required_missions = {
			H67_create_immigration_office
		}
		
		trigger = {
			total_development = 100
		}
		
		effect = {
			dry_coast_region  = {
				limit = {
					NOT = { is_core = ROOT }
					NOT = { is_permanent_claim = ROOT }
					NOT = { is_claim = ROOT }
				}
				add_claim = ROOT
			}
			add_stability_or_adm_power = yes
		}
	}
}

rezankand_3_b = {
	slot = 3
	generic = no
	ai = yes
	has_country_shield = yes
	
	potential = {
		OR = {
			tag = H67
		}
	}
	
	H67_elven_coast = {
		icon = mission_rb_conquer_brittany
		ai = yes
		position = 6
		
		required_missions = {
			H67_expand_territory
		}

		provinces_to_highlight = {
			region = dry_coast_region
			
			NOT = { owned_by = ROOT }
		}
		
		trigger = {
			num_of_owned_provinces_with = {
				value = 15
				
				region = dry_coast_region
			}
		}
		
		effect = {
			add_adm_power = 150
			dry_coast_region  = {
				limit = {
					NOT = { is_core = ROOT }
					NOT = { is_permanent_claim = ROOT }
				}
				add_permanent_claim = ROOT
			}
			
			east_effelai_region  = {
				limit = {
					NOT = { is_core = ROOT }
					NOT = { is_permanent_claim = ROOT }
					NOT = { is_claim = ROOT }
				}
				add_claim = ROOT
			}
			
			junglemouth_area  = {
				limit = {
					NOT = { is_core = ROOT }
					NOT = { is_permanent_claim = ROOT }
				}
				add_permanent_claim = ROOT
			}
		}
	}
	
	H67_taychend_path = {
		icon = mission_rb_rein_in_the_highland_clans
		ai = yes
		position = 7
		
		required_missions = {
			H67_elven_coast
		}

		provinces_to_highlight = {
			area = junglemouth_area
			
			NOT = { owned_by = ROOT }
		}
		
		trigger = {
			junglemouth_area = {
				type = all
				owned_by = ROOT
			}
		}
		
		effect = {
			central_effelai_area  = {
				limit = {
					NOT = { is_core = ROOT }
					NOT = { is_permanent_claim = ROOT }
				}
				add_permanent_claim = ROOT
			}
			
			deep_trail_area  = {
				limit = {
					NOT = { is_core = ROOT }
					NOT = { is_permanent_claim = ROOT }
				}
				add_permanent_claim = ROOT
			}
		}
	}
	
	H67_effelai_heart = {
		icon = mission_clear_the_delta
		ai = yes
		position = 9
		
		required_missions = {
			H67_taychend_path
		}

		provinces_to_highlight = {
			OR = {
				area = deep_trail_area
				area = central_effelai_area
			}
			NOT = { owned_by = ROOT }
		}
		
		trigger = {
			deep_trail_area = {
				type = all
				owned_by = ROOT
			}
			central_effelai_area = {
				type = all
				owned_by = ROOT
			}
		}
		
		effect = {
			rockfall_jungle_area  = {
				limit = {
					NOT = { is_core = ROOT }
					NOT = { is_permanent_claim = ROOT }
				}
				add_permanent_claim = ROOT
			}
			
			mistwood_area  = {
				limit = {
					NOT = { is_core = ROOT }
					NOT = { is_permanent_claim = ROOT }
				}
				add_permanent_claim = ROOT
			}
		}
	}
	
	H67_leaf_path = {
		icon = mission_conquer_malwa_bah
		ai = yes
		position = 10
		
		required_missions = {
			H67_effelai_heart
		}

		provinces_to_highlight = {
			region = south_effelai_region
			
			NOT = { owned_by = ROOT }
		}
		
		trigger = {
			south_effelai_region = {
				type = all
				owned_by = ROOT
			}
			treasury = 2000
			manpower = 10
			adm_power = 100
		}
		
		effect = {
			add_adm_power = -100
			add_treasury = -2000
			add_manpower = -10
			add_prestige = 10
			add_stability_or_adm_power = yes
			country_event = { id = rezankand.6 } # Leaf path event
			oomu_nelir_area  = {
				limit = {
					NOT = { is_core = ROOT }
					NOT = { is_permanent_claim = ROOT }
					NOT = { is_claim = ROOT }
				}
				add_claim = ROOT
			}
			culefchas_area  = {
				limit = {
					NOT = { is_core = ROOT }
					NOT = { is_permanent_claim = ROOT }
					NOT = { is_claim = ROOT }
				}
				add_claim = ROOT
			}
			siquoomul_area  = {
				limit = {
					NOT = { is_core = ROOT }
					NOT = { is_permanent_claim = ROOT }
					NOT = { is_claim = ROOT }
				}
				add_claim = ROOT
			}
			chaiwafmul_area  = {
				limit = {
					NOT = { is_core = ROOT }
					NOT = { is_permanent_claim = ROOT }
					NOT = { is_claim = ROOT }
				}
				add_claim = ROOT
			}
			erengunel_area  = {
				limit = {
					NOT = { is_core = ROOT }
					NOT = { is_permanent_claim = ROOT }
					NOT = { is_claim = ROOT }
				}
				add_claim = ROOT
			}
		}
	}
	
	H67_amadia_way = {
		icon = mission_advance_to_the_arabian_sea
		ai = yes
		position = 11
		
		required_missions = {
			H67_leaf_path
		}

		provinces_to_highlight = {
			region = amadia_region
			
			NOT = { owned_by = ROOT }
		}
		
		trigger = {
			num_of_provinces_owned_or_owned_by_non_sovereign_subjects_with = {
				value = 8
				region = amadia_region
			}
		}
		
		effect = {
			amadia_region  = {
				limit = {
					NOT = { is_core = ROOT }
					NOT = { is_permanent_claim = ROOT }
					NOT = { is_claim = ROOT }
				}
				add_claim = ROOT
			}
		}
	}
	
	H67_amadia_exploitation = {
		icon = mission_end_arakan_piracy
		ai = yes
		position = 12
		
		required_missions = {
			H67_amadia_way
		}

		provinces_to_highlight = {
			region = amadia_region
			
			NOT = { owned_by = ROOT }
		}
		
		trigger = {
			num_of_provinces_owned_or_owned_by_non_sovereign_subjects_with = {
				value = 50
				region = amadia_region
			}
		}
		
		effect = {
			add_prestige = 20
			capital_scope = {
				area = {
					add_base_tax = 1
					add_base_manpower = 1
					add_base_production = 1
				}
			}
		}
	}
	
	H67_prepare_the_fleet = {
		icon = mission_rb_a_mighty_fleet
		ai = yes
		position = 15
		
		required_missions = {
			H67_amadia_exploitation
			H67_hot_knife_through_butter
			H67_northern_logistic_base
		}
		
		trigger = {
			if = {
				limit = { ai = no }
				OR = {
					navy_size_percentage = 0.95
					num_of_heavy_ship = 50
				}
			}
			else = {
				navy_size_percentage = 0.2
			}
			dip_power = 200
		}
		
		effect = {
			add_dip_power = -200
			country_event = { id = rezankand.7 days = 360 random = 200 }
			add_prestige = 10
		}
	}
	
	H67_the_great_expedition = {
		icon = mission_prepare_an_invasion_force
		ai = yes
		position = 16
		
		required_missions = {
			H67_prepare_the_fleet
		}
		
		trigger = {
			custom_trigger_tooltip = {
				tooltip = rezankand_expedition_tooltip
				has_country_flag = rezankand_expedition_ready
			}
			prestige = 90
			has_legitimacy_equivalent = { VAL=90 }
		}
		
		effect = {
			west_vanburia_area  = {
				limit = {
					NOT = { is_core = ROOT }
					NOT = { is_permanent_claim = ROOT }
					NOT = { is_claim = ROOT }
				}
				add_claim = ROOT
			}
			north_vanburia_area  = {
				limit = {
					NOT = { is_core = ROOT }
					NOT = { is_permanent_claim = ROOT }
					NOT = { is_claim = ROOT }
				}
				add_claim = ROOT
			}
			east_vanburia_area  = {
				limit = {
					NOT = { is_core = ROOT }
					NOT = { is_permanent_claim = ROOT }
					NOT = { is_claim = ROOT }
				}
				add_claim = ROOT
			}
			jungles_welcome_area  = {
				limit = {
					NOT = { is_core = ROOT }
					NOT = { is_permanent_claim = ROOT }
					NOT = { is_claim = ROOT }
				}
				add_claim = ROOT
			}
			sanctuary_fields_area  = {
				limit = {
					NOT = { is_core = ROOT }
					NOT = { is_permanent_claim = ROOT }
					NOT = { is_claim = ROOT }
				}
				add_claim = ROOT
			}
			trapwall_jungle_area  = {
				limit = {
					NOT = { is_core = ROOT }
					NOT = { is_permanent_claim = ROOT }
					NOT = { is_claim = ROOT }
				}
				add_claim = ROOT
			}
			despondence_coast_area  = {
				limit = {
					NOT = { is_core = ROOT }
					NOT = { is_permanent_claim = ROOT }
					NOT = { is_claim = ROOT }
				}
				add_claim = ROOT
			}
			silvertennar_area  = {
				limit = {
					NOT = { is_core = ROOT }
					NOT = { is_permanent_claim = ROOT }
					NOT = { is_claim = ROOT }
				}
				add_claim = ROOT
			}
			colonial_isles  = {
				limit = {
					NOT = { is_core = ROOT }
					NOT = { is_permanent_claim = ROOT }
				}
				add_permanent_claim = ROOT
			}
			reapers_coast_region  = {
				limit = {
					NOT = { is_core = ROOT }
					NOT = { is_permanent_claim = ROOT }
					NOT = { is_claim = ROOT }
				}
				add_claim = ROOT
			}
		}
	}
	
	H67_land_on_the_beach = {
		icon = mission_fortify_mandu
		ai = yes
		position = 17
		
		required_missions = {
			H67_the_great_expedition		
		}	
		
		provinces_to_highlight = {
			region = reapers_coast_region
			
			NOT = { country_or_vassal_holds = ROOT }
		}
		
		trigger = {
			num_of_provinces_owned_or_owned_by_non_sovereign_subjects_with = {
				value = 12
				region = reapers_coast_region
			}
		}
		
		effect = {
			add_prestige = 20
			add_mil_power = 100
			add_dip_power = 100
			if = {
				limit = {
					any_subject_country = {
						capital_scope = { colonial_region = colonial_noruin }
					}
				}
				random_subject_country = {
					limit = { capital_scope = { colonial_region = colonial_noruin } }
					colonial_noruin  = {
						limit = {
							NOT = { is_core = PREV }
							NOT = { is_permanent_claim = PREV }
						}
						add_permanent_claim = PREV
					}
				}
			}
			else = {
				colonial_noruin  = {
					limit = {
						NOT = { is_core = ROOT }
						NOT = { is_permanent_claim = ROOT }
						NOT = { is_claim = ROOT }
					}
					add_claim = ROOT
				}
			}
		}
	}
	
	H67_the_trollsbay = {
		icon = mission_malwi_architecture
		ai = yes
		position = 18
		
		required_missions = {
			H67_land_on_the_beach		
		}	
		
		provinces_to_highlight = {
			region = trollsbay_region
			
			NOT = { country_or_vassal_holds = ROOT }
		}
		
		trigger = {
			num_of_provinces_owned_or_owned_by_non_sovereign_subjects_with = {
				value = 50
				region = trollsbay_region
			}
		}
		
		effect = {
			add_prestige = 20
			add_mil_power = 100
			add_dip_power = 100
			if = {
				limit = {
					any_subject_country = {
						capital_scope = { colonial_region = colonial_noruin }
					}
				}
				random_subject_country = {
					limit = { capital_scope = { colonial_region = colonial_noruin } }
					colonial_noruin  = {
						limit = {
							NOT = { is_core = PREV }
							NOT = { is_permanent_claim = PREV }
						}
						add_permanent_claim = PREV
					}
				}
			}
			else = {
				colonial_noruin  = {
					limit = {
						NOT = { is_core = ROOT }
						NOT = { is_permanent_claim = ROOT }
						NOT = { is_claim = ROOT }
					}
					add_claim = ROOT
				}
			}
		}
	}
	
	H67_storm_noruin = {
		icon = mission_invade_island
		ai = yes
		position = 19
		
		required_missions = {
			H67_the_trollsbay		
		}	
		
		provinces_to_highlight = {
			colonial_region = colonial_noruin
			
			NOT = { country_or_vassal_holds = ROOT }
		}
		
		trigger = {
			num_of_provinces_owned_or_owned_by_non_sovereign_subjects_with = {
				value = 90
				colonial_region = colonial_noruin
			}
		}
		
		effect = {
			add_prestige = 25
			add_mil_power = 150
			add_dip_power = 150
			add_years_of_income = 2
		}
	}
	
	H67_the_last_expedition = {
		icon = mission_have_two_subjects
		ai = yes
		position = 20
		
		required_missions = {
			H67_storm_noruin
			H67_the_riches_of_eordand
			H67_endralliande
		}	
		
		trigger = {
			OR = {
				army_size_percentage = 1
				army_size = 200
			}
		}
		
		effect = {
			if = {
			limit = {
				any_subject_country = {
					capital_scope = { colonial_region = colonial_ynn }
				}
			}
				random_subject_country = {
					limit = { capital_scope = { colonial_region = colonial_ynn } }
					colonial_ynn  = {
						limit = {
							NOT = { is_core = PREV }
							NOT = { is_permanent_claim = PREV }
						}
						add_permanent_claim = PREV
					}
				}
			}
			else = {
				colonial_ynn  = {
					limit = {
						NOT = { is_core = ROOT }
						NOT = { is_permanent_claim = ROOT }
						NOT = { is_claim = ROOT }
					}
					add_claim = ROOT
				}
			}
		}
	}
	
	H67_the_submission_of_a_civilization = {
		icon = mission_impaled_soldies
		ai = yes
		position = 21
		
		required_missions = {
			H67_the_last_expedition
		}	
		
		provinces_to_highlight = {
			colonial_region = colonial_ynn
			
			NOT = { country_or_vassal_holds = ROOT }
		}
		
		trigger = {
			num_of_provinces_owned_or_owned_by_non_sovereign_subjects_with = {
				value = 180
				colonial_region = colonial_ynn
			}
		}
		
		effect = {
			add_stability = 2
			add_prestige = 50
			add_country_modifier = {
				name = rezankand_ynn_grain
				duration = -1
			}
		}
	}
	
	H67_a_sunny_day = {
		icon = mission_a_sunny_day
		ai = yes
		position = 22
		
		required_missions = {
			H67_the_submission_of_a_civilization
		}	
		
		trigger = {
			stability = 3
			has_legitimacy_equivalent = { VAL=100 }
		}
		
		effect = {
			country_event = { id = rezankand.8 }
		}
	}
}

rezankand_4_a = {
	slot = 4
	generic = no
	ai = yes
	has_country_shield = yes
	
	potential = {
		OR = {
			tag = H67
		}
	}
	
	H67_military_reform = {
		icon = mission_cannons_firing
		position = 2
		
		required_missions = {
			H67_a_crown_to_govern_them_all
		}
		
		trigger = {
			mil_power = 200
			army_size = 130
		}
		
		effect = {
			add_mil_power = -200
			add_country_modifier = {
				name = rezankand_military_reform
				duration = 7300
			}
		}
	}
	
	H67_militarize_society = {
		icon = kingdom_of_heaven
		ai = yes
		position = 3
		
		required_missions = {
			H67_military_reform
		}
		
		trigger = {
			mil_power = 200
			mil_tech = 16
			has_professionalism_equivalent = { VAL=0.8 }
		}
		
		effect = {
			add_mil_power = -200
			custom_tooltip = rezankand_mercenary_tooltip
			hidden_effect = { set_country_flag = rezankand_elite_division }
			hidden_effect = { 1804 = { add_province_triggered_modifier = merc_rezankand_var_kultoz_free } }
		}
	}
}

rezankand_4_b = {
	slot = 4
	generic = no
	ai = yes
	has_country_shield = yes
	
	potential = {
		OR = {
			tag = H67
			tag = H66
		}
	}
	
	H67_create_colonial_office = {
		icon = mission_settlers_north_america
		ai = yes
		position = 4
		
		required_missions = {
			H67_establish_spearhead
		}
		
		trigger = {
			adm_power = 200
			dip_power = 200
		}
		
		effect = {
			add_adm_power = -200
			add_dip_power = -200
			add_country_modifier = {
				name = rezankand_colonial_office
				duration = 36500
			}
		}
	}
	
	H67_settlement_edicts = {
		icon = mission_hanseatic_city
		ai = yes
		position = 5
		
		required_missions = {
			H67_create_colonial_office
			H67_create_immigration_office
		}
		
		trigger = {
			dip_power = 150
		}
		
		effect = {
			add_dip_power = -150
			add_country_modifier = {
				name = rezankand_settlements_edicts
				duration = 27375
			}
		}
	}
}

rezankand_4_c = {
	slot = 4
	generic = no
	ai = yes
	has_country_shield = yes
	
	potential = {
		OR = {
			tag = H67
		}
	}
	
	H67_jungle_colonial_technique = {
		icon = mission_steer_trade_to_bengal
		ai = yes
		position = 6
		
		required_missions = {
			H67_expand_territory
		}
		
		trigger = {
			years_of_income = 1.5
			adm_power = 100
			dip_power = 100
		}
		
		effect = {
			custom_tooltip = rezankand_jungle_tooltip
			add_years_of_income = -1.5
			add_adm_power = -100
			add_dip_power = -100
			hidden_effect = {
				set_country_flag = rezankand_jungle_research #Allow special event to boost jungle colonial province <- It's Done
			}
		}
	}
	
	H67_through_the_jungle = {
		icon = mission_rein_in_the_velamas
		ai = yes
		position = 7
		
		required_missions = {
			H67_elven_coast
		}
		
		provinces_to_highlight = {
			region = east_effelai_region
			
			NOT = { owned_by = ROOT }
		}
		
		trigger = {
			num_of_owned_provinces_with = {
				region = east_effelai_region
				
				value = 8
			}
		}
		
		effect = {
			east_effelai_region  = {
				limit = {
					NOT = { is_core = ROOT }
					NOT = { is_permanent_claim = ROOT }
				}
				add_permanent_claim = ROOT
			}
		}
	}
	
	H67_tamed_jungle = {
		icon = mission_secure_khandesh
		ai = yes
		position = 8
		
		required_missions = {
			H67_through_the_jungle
		}
		
		provinces_to_highlight = {
			region = east_effelai_region
			
			NOT = { owned_by = ROOT }
		}
		
		trigger = {
			num_of_owned_provinces_with = {
				region = east_effelai_region
				
				value = 30
			}
		}
		
		effect = {
			add_adm_power = 100
			add_dip_power = 100
			add_prestige = 15
			add_stability_or_adm_power = yes
		}
	}
	
	H67_marsh_logistic = {
		icon = mission_collect_yasak
		ai = yes
		position = 10
		
		required_missions = {
			H67_tamed_jungle
			H67_effelai_heart
		}
		
		
		trigger = {
			if = {
				limit = { ai = no }
				army_size = 30
			}
			else = { army_size = 20 }
			mil_power = 200
			adm_power = 100
		}
		
		effect = {
			add_adm_power = -100
			add_mil_power = -200
			colonial_leechden  = {
				limit = {
					NOT = { country_or_vassal_holds = ROOT }
				}
				add_claim = ROOT
			}
			define_conquistador = {
				name = "Ariel"
				shock = 3
				fire = 5
				manuever = 6
				siege = 1
			}
		}
	}
	
	H67_silvers_mountains = {
		icon = mission_invade_island
		ai = yes
		position = 12
		
		required_missions = {
			H67_amadia_way
		}
		
		provinces_to_highlight = {
			region = amadia_region
			has_terrain = mountain
			
			NOT = { country_or_vassal_holds = ROOT }
		}
		
		trigger = {
			num_of_provinces_owned_or_owned_by_non_sovereign_subjects_with = {
				value = 1
				
				trade_goods = gold
				region = amadia_region
				has_terrain = mountain
			}
		}
		
		effect = {
			custom_tooltip = rezankand_silver_mine_tooltip
			add_prestige = 25
			add_stability_or_adm_power = yes
			add_dip_power = 125
			every_province = {
				limit = {
					trade_goods = gold
					has_terrain = mountain
					region = amadia_region
					country_or_vassal_holds = ROOT
				}
				add_province_modifier = {
					name = rezankand_silver_mine
					duration = 36500
				}
			}
		}
	}
	
	H67_coinage = {
		icon = mission_establish_mint_towns
		ai = yes
		position = 13
		
		required_missions = {
			H67_silvers_mountains
		}
		
		
		trigger = {
			adm_power = 250
		}
		
		effect = {
			add_adm_power = -250
			add_years_of_income = 6
			add_inflation = 20
			add_country_modifier = {
				name = rezankand_coinage
				duration = 3650
			}
		}
	}
	
	H67_northern_logistic_base = {
		icon = mission_raid_christian_trade
		ai = yes
		position = 14
		
		required_missions = {
			H67_rush_the_north
		}
		
		
		trigger = {
			any_owned_province = {
				region = soruin_region
				development = 20
				is_city = yes
				has_port = yes
			}
		}
		
		effect = {
			random_owned_province = {
				limit = {
					region = soruin_region
					development = 20
					is_city = yes
					has_port = yes
				}
				add_base_manpower = 5
				add_base_tax = 2
				add_province_modifier = {
					name = rezankand_logistic_port
					duration = -1
				}
				change_trade_goods = naval_supplies
				set_province_flag = damestear_no_spawn
				set_province_flag = relics_no_spawn
			}
		}
	}
	
	H67_the_ravenous_jungle = {
		icon = mission_junnagadh_fort
		ai = yes
		position = 17
		
		required_missions = {
			H67_the_great_expedition
		}
		
		provinces_to_highlight = {
			OR = {
				area = jungles_welcome_area
				area = sanctuary_fields_area
				area = trapwall_jungle_area
				area = despondence_coast_area
				area = silvertennar_area
			}
			NOT = { country_or_vassal_holds = ROOT }
		}
		
		trigger = {
			jungles_welcome_area = {
				type = all
				country_or_vassal_holds = ROOT
			}
			sanctuary_fields_area = {
				type = all
				country_or_vassal_holds = ROOT
			}
			trapwall_jungle_area = {
				type = all
				country_or_vassal_holds = ROOT
			}
			despondence_coast_area = {
				type = all
				country_or_vassal_holds = ROOT
			}
			silvertennar_area = {
				type = all
				country_or_vassal_holds = ROOT
			}
		}
		
		effect = {
			add_prestige = 20
			add_mil_power = 50
			add_dip_power = 125
		}
	}
	
	H67_our_ruined_sea = {
		icon = mission_conquer_malwa_guj
		ai = yes
		position = 18
		
		required_missions = {
			H67_the_ravenous_jungle
		}
		
		provinces_to_highlight = {
			colonial_region = colonial_isles
			
			NOT = { country_or_vassal_holds = ROOT }
		}
		
		trigger = {
			num_of_provinces_owned_or_owned_by_non_sovereign_subjects_with = {
				value = 20
				colonial_region = colonial_isles
			}
		}
		
		effect = {
			add_prestige = 20
			add_mil_power = 50
			add_dip_power = 125
			if = {
				limit = {
					any_subject_country = {
						capital_scope = { colonial_region = colonial_endralliande }
					}
				}
				random_subject_country = {
					limit = { capital_scope = { colonial_region = colonial_endralliande } }
					colonial_endralliande  = {
						limit = {
							NOT = { is_core = PREV }
							NOT = { is_permanent_claim = PREV }
						}
						add_permanent_claim = PREV
					}
				}
			}
			else = {
				colonial_endralliande  = {
					limit = {
						NOT = { is_core = ROOT }
						NOT = { is_permanent_claim = ROOT }
						NOT = { is_claim = ROOT }
					}
					add_claim = ROOT
				}
			}
		}
	}
	
	H67_endralliande = {
		icon = mission_rb_conquer_the_isles
		ai = yes
		position = 19
		
		required_missions = {
			H67_our_ruined_sea
		}
		
		provinces_to_highlight = {
			OR = {
				area = northern_bluff_area
				area = hibiscus_vale_area
				area = cape_of_endral_area
				area = seaway_corridor_area
				area = red_harbor_area
				area = endralvar_area
			}
			
			NOT = { country_or_vassal_holds = ROOT }
		}
		
		trigger = {
			northern_bluff_area = {
				type = all
				country_or_vassal_holds = ROOT
			}
			hibiscus_vale_area = {
				type = all
				country_or_vassal_holds = ROOT
			}
			cape_of_endral_area = {
				type = all
				country_or_vassal_holds = ROOT
			}
			seaway_corridor_area = {
				type = all
				country_or_vassal_holds = ROOT
			}
			red_harbor_area = {
				type = all
				country_or_vassal_holds = ROOT
			}
			endralvar_area = {
				type = all
				country_or_vassal_holds = ROOT
			}
		}
		
		effect = {
			add_prestige = 50
		}
	}
}


rezankand_5 = {
	slot = 5
	generic = no
	ai = yes
	has_country_shield = yes
	
	potential = {
		OR = {
			tag = H67
		}
	}
	
	H67_a_crown_to_govern_them_all = { #Dazinchosen
		icon = mission_a_crown
		ai = yes
		position = 1
		
		trigger = {
			primary_culture = dawn_elf
			OR = {
				AND = {
					dip = 5
					mil = 5
					adm = 5
				}
				ruler_has_mage_personality = yes
			}
		}
		
		effect = {
			add_stability_or_adm_power = yes
			country_event = { id = rezankand.13 }
			
		}
	}
	
	H67_a_sword_to_conquer_them_all = { #Dazinbringer
		icon = mission_a_sword
		ai = yes
		position = 2
		
		required_missions = {
			H67_a_crown_to_govern_them_all
		}
		
		trigger = {
			always = yes
			custom_trigger_tooltip = {
				tooltip = dazinare_tooltip
				has_country_flag = rezankand_sword_done
			}
			#Unlock this by doing a decision to forge the sword at the sun temple
		}
		
		effect = {
			add_stability_or_adm_power = yes
			add_country_modifier = {
				name = rezankand_dazinbringer
				duration = -1
			}
		}
	}
	
	H67_a_city_to_sublimated_them_all = { #Dazinare
		icon = mission_rb_scottish_conquer_london
		ai = yes
		position = 3
		
		required_missions = {
			H67_a_sword_to_conquer_them_all
		}
		
		trigger = {
			if = {
				limit = { ai = no }
				manpower = 40
				treasury = 4000
			}
			else = {
				treasury = 500
			}
		}
		
		effect = {
			if = {
				limit = { ai = no }
				add_manpower = -40
				add_treasury = -4000
			}
			else = {
				add_treasury = -500
			}
			capital_scope = {
				if = {
					limit = {
						NOT = { trade_goods = gold }
						NOT = { trade_goods = damestear }
						NOT = { trade_goods = silk }
						NOT = { trade_goods = precursor_relics }
					}
					change_trade_goods = gems
				}
				add_base_manpower = 5
				add_base_production = 5
				add_base_tax = 5
				add_center_of_trade_level = 1
				change_province_name = "Dazinare"
				rename_capital = "Dazinare"
			}
		}
	}
	
	H67_consecrated_people = { 
		icon = mission_imperial_spain
		ai = yes
		position = 7
		
		
		trigger = {
			num_of_owned_provinces_with = {
				religion = bulwari_sun_cult
			
				value = 100
			}
		}
		
		effect = {
			add_stability = 2
		}
	}
	
	H67_sun_temple = { 
		icon = mission_rb_trinity_college_dublin
		ai = yes
		position = 8
	
		required_missions = {
			H67_consecrated_people
		}
		
		provinces_to_highlight = {
			province_id = 2378
		}
		
		trigger = {
			owns = 2378
			if = {
				limit = { ai = no }
				manpower = 30
				treasury = 3000
			}
			else = {
				treasury = 500
			}
		}
		
		effect = {
			if = {
				limit = { ai = no }
				add_manpower = -30
				add_treasury = -3000
			}
			else = {
				add_treasury = -500
			}
			country_event = { id = rezankand.10 }
		}
	}
	
	H67_sura_el_inquisition = {
		icon = mission_mayan_conquest
		ai = yes
		position = 9
	
		required_missions = {
			H67_sun_temple
		}
		
		provinces_to_highlight = {
			province_id = 2378
		}
		
		trigger = {
			owns = 2378
			mil_power = 200
			adm_power = 200
		}
		
		effect = {
			custom_tooltip = rezankand_will_gain_casus_belli
			add_mil_power = -200
			add_adm_power = -200
			hidden_effect = { set_country_flag = rezankand_subjugation }
			add_country_modifier = {
				name = rezankand_inquisition
				duration = 73000
			}
		}
	}
	
	H67_the_gar_expedition = {
		icon = mission_expel_the_moriscos
		ai = yes
		position = 11
	
		required_missions = {
			H67_marsh_logistic
		}
		
		provinces_to_highlight = {
			colonial_region = colonial_leechden
			
			NOT = { country_or_vassal_holds = ROOT }
		}
		
		trigger = {
			colonial_leechden = {	
				type = all
				
				country_or_vassal_holds = ROOT
			}
		}
		
		effect = {
			add_prestige = 15
			add_dip_power = 100
			add_mil_power = 100
			add_adm_power = 100
			soruin_region = {
				limit = {
					NOT = { country_or_vassal_holds = ROOT }
				}
				add_claim = ROOT
			}
		}
	}
	
	H67_rush_the_north = {
		icon = mission_turning_the_tables
		ai = yes
		position = 13
	
		required_missions = {
			H67_the_gar_expedition
		}
		
		provinces_to_highlight = {
			region = soruin_region
			
			NOT = { country_or_vassal_holds = ROOT }
		}
		
		trigger = {
			num_of_provinces_owned_or_owned_by_non_sovereign_subjects_with = {
				value = 20
				region = soruin_region
			}
		}
		
		effect = {
			add_prestige = 30
			add_dip_power = 100
			add_mil_power = 100
		}
	}
}
